Fecundity analyses
…
print(paste0("5 measurement ages [days]: ", list(unique(fec.F1$age))))

[1] "5 measurement ages [days]: c(4, 11, 18, 25, 32)"

 # 5 measurement ages: 4, 11, 18, 25, 32 days old

fec.F1.a <- fec.F1 %>% 
  group_by(par_temp, par_diet, par_eff, vial_id) %>% 
  summarise(., vial_sum = sum(eggs), n_ages = n_distinct(age)) 
fec.F1.a %>% group_by(par_temp, par_diet, par_eff) %>%
  summarise(., mean_sum_fec = mean(vial_sum), se = sd(vial_sum)/sqrt(length(vial_sum)), 
  sd = sd(vial_sum), median = median(vial_sum), n_vials = n_distinct(vial_id))

# A tibble: 30 × 8
# Groups:   par_temp, par_diet [15]
   par_temp par_diet par_eff mean_sum_fec    se    sd median n_vials
      <dbl> <fct>    <chr>          <dbl> <dbl> <dbl>  <dbl>   <int>
 1       21 0.4      mat             212.  13.5 19.1    212.       2
 2       21 0.4      pat             410   11   15.6    410        2
 3       21 1        mat             280.  40.5 57.3    280.       2
 4       21 1        pat             300.  16.5 23.3    300.       2
 5       21 1.5      mat             412   36   50.9    412        2
 6       21 1.5      pat             254    5    7.07   254        2
 7       23 0.4      mat             228.   2.5  3.54   228.       2
 8       23 0.4      pat             322.  50.5 71.4    322.       2
 9       23 1        mat             260.  23.5 33.2    260.       2
10       23 1        pat             236.  10.5 14.8    236.       2
# ℹ 20 more rows
…
