Survival analyses
…
P value adjustment method: BH 

F1 SURVIVAL

Explore F1 survival data

# plot(survivalF1$lifespan) # ok: no off-values/outliers
# max(survivalF1$lifespan)  # max. lifespan = 100 days

survivalF1 %>% group_by(par_temp, par_diet, sex) %>%
  summarise(., mean = mean(lifespan), se = sd(lifespan)/sqrt(length(lifespan)), sd = sd(lifespan), 
   median = median(lifespan), n_vials = n_distinct(vial_id), n_inds = n())

# A tibble: 30 × 9
# Groups:   par_temp, par_diet [15]
   par_temp par_diet sex    mean    se    sd median n_vials n_inds
      <dbl> <fct>    <chr> <dbl> <dbl> <dbl>  <dbl>   <int>  <int>
 1       21 0.4      f      76.5  1.93 14.9      79       4     60
 2       21 0.4      m      59.8  1.74 13.5      61       4     60
 3       21 1        f      81.1  1.15  8.93     82       4     60
 4       21 1        m      58.2  1.71 13.2      59       4     60
 5       21 1.5      f      81    1.02  7.88     80       4     60
 6       21 1.5      m      57.4  1.96 15.2      59       4     60
 7       23 0.4      f      76.4  2.33 18.0      80       4     60
 8       23 0.4      m      57.5  1.72 13.3      57       4     60
 9       23 1        f      78.6  1.84 14.2      82       4     60
10       23 1        m      56.4  1.93 14.9      57       4     60
# ℹ 20 more rows
…
